{
  "images" : [
    {
      "idiom" : "universal",
      "filename" : "68747470733a2f2f692e696d6775722e636f6d2f415975745a4f462e706e67.png",
      "scale" : "1x"
    },
    {
      "idiom" : "universal",
      "filename" : "68747470733a2f2f692e696d6775722e636f6d2f415975745a4f462e706e67-1.png",
      "scale" : "2x"
    },
    {
      "idiom" : "universal",
      "filename" : "68747470733a2f2f692e696d6775722e636f6d2f415975745a4f462e706e67-2.png",
      "scale" : "3x"
    }
  ],
  "info" : {
    "version" : 1,
    "author" : "xcode"
  }
}